<?xml version="1.0" encoding="utf-8"?>
<!-- Generator: Adobe Illustrator 25.0.1, SVG Export Plug-In . SVG Version: 6.00 Build 0)  -->
<svg version="1.1" id="Layer_1" xmlns="http://www.w3.org/2000/svg" xmlns:xlink="http://www.w3.org/1999/xlink" x="0px" y="0px"
	 width="40.5px" height="40.5px" viewBox="0 0 40.5 40.5" style="enable-background:new 0 0 40.5 40.5;" xml:space="preserve">
<style type="text/css">
	.st0{fill:#FFFFFF;stroke:#103F6D;stroke-width:0.5;stroke-miterlimit:10;}
	.st1{fill:#103F6D;}
</style>
<g id="Layer_2_1_">
	<g id="Layer_1-2">
		<g id="inovacija">
			<rect x="0.2" y="0.2" class="st0" width="40" height="40"/>
			<g>
				<g>
					<polygon class="st1" points="9.5,22.2 9.5,29 19.8,34.8 19.8,22.8 11.8,23.5 					"/>
					<polygon class="st1" points="9.5,16.6 19.8,22.5 19.8,10.7 					"/>
					<polygon class="st1" points="20.8,22.8 20.8,34.8 30.9,29 30.9,22.2 28.9,23.5 					"/>
					<polygon class="st1" points="30.9,16.6 20.8,10.7 20.8,22.5 					"/>
					<path class="st1" d="M20.2,36.2L20.2,36.2L20.2,36.2z"/>
					<path class="st1" d="M20.2,9.2L20.2,9.2L20.2,9.2z"/>
					<polygon class="st1" points="11.9,22.5 17.1,22 8.4,17 3.1,17.5 					"/>
					<path class="st1" d="M8.4,17l8.7,5.1l-5.2,0.5l-8.8-5.1L8.4,17z"/>
					<polygon class="st1" points="23.4,22 28.5,22.5 37.3,17.5 32.2,17 					"/>
					<polygon class="st1" points="20.2,9.2 20.2,9.2 16.5,6.2 4.8,12.9 8.5,15.9 19.8,9.6 					"/>
					<polygon class="st1" points="20.8,9.6 31.9,15.9 35.7,12.9 24,6.2 20.2,9.2 20.2,9.2 					"/>
				</g>
			</g>
		</g>
	</g>
</g>
</svg>
