<?xml version="1.0" encoding="utf-8"?>
<!-- Generator: Adobe Illustrator 24.1.1, SVG Export Plug-In . SVG Version: 6.00 Build 0)  -->
<svg version="1.1" id="Layer_1" xmlns="http://www.w3.org/2000/svg" xmlns:xlink="http://www.w3.org/1999/xlink" x="0px" y="0px"
	 width="30px" height="30px" viewBox="0 0 30 30" style="enable-background:new 0 0 30 30;" xml:space="preserve">
<style type="text/css">
	.st0{fill:#FFFFFF;}
	.st1{fill:#15406D;}
</style>
<g>
	<g>
		<rect class="st0" width="30" height="30"/>
	</g>
	<g>
		<g>
			<g>
				<path class="st1" d="M12.3,17.9c-0.3,0-0.5-0.2-0.6-0.5L8.5,8.7h-2V7.3H9c0.3,0,0.5,0.2,0.6,0.5l3.1,8.7l9.4-1v-4.2h-10
					l-0.4-1.4h11.2c0.4,0,0.7,0.3,0.7,0.7V16c0,0.3-0.3,0.6-0.6,0.7L12.3,17.9C12.3,17.9,12.3,17.9,12.3,17.9z"/>
			</g>
		</g>
		<g>
			<g>
				<path class="st1" d="M13.8,22.7c-1.2,0-2.1-1-2.1-2.1s1-2.1,2.1-2.1c1.2,0,2.1,1,2.1,2.1S15,22.7,13.8,22.7z M13.8,19.8
					c-0.4,0-0.8,0.3-0.8,0.8c0,0.4,0.3,0.8,0.8,0.8s0.8-0.3,0.8-0.8C14.6,20.1,14.3,19.8,13.8,19.8z"/>
			</g>
		</g>
		<g>
			<g>
				<path class="st1" d="M20.9,22.7c-1.2,0-2.1-1-2.1-2.1s1-2.1,2.1-2.1c1.2,0,2.1,1,2.1,2.1S22.1,22.7,20.9,22.7z M20.9,19.8
					c-0.4,0-0.8,0.3-0.8,0.8c0,0.4,0.3,0.8,0.8,0.8s0.8-0.3,0.8-0.8C21.7,20.1,21.4,19.8,20.9,19.8z"/>
			</g>
		</g>
	</g>
</g>
</svg>
