<?xml version="1.0" encoding="utf-8"?>
<!-- Generator: Adobe Illustrator 24.1.1, SVG Export Plug-In . SVG Version: 6.00 Build 0)  -->
<svg version="1.1" id="Layer_1" xmlns="http://www.w3.org/2000/svg" xmlns:xlink="http://www.w3.org/1999/xlink" x="0px" y="0px"
	 width="34.2px" height="30px" viewBox="0 0 34.2 30" style="enable-background:new 0 0 34.2 30;" xml:space="preserve">
<style type="text/css">
	.st0{fill:#EF8B22;}
</style>
<g>
	<g>
		<polygon class="st0" points="6.4,16 6.4,22.7 16.6,28.6 16.6,16.5 8.6,17.3 		"/>
		<polygon class="st0" points="6.4,10.3 16.6,16.2 16.6,4.4 		"/>
		<polygon class="st0" points="17.6,16.5 17.6,28.6 27.8,22.7 27.8,16 25.7,17.3 		"/>
		<polygon class="st0" points="27.8,10.3 17.6,4.4 17.6,16.2 		"/>
		<polygon class="st0" points="17.1,30 17.1,30 17.1,30 		"/>
		<polygon class="st0" points="17.1,3 17.1,3 17.1,3 		"/>
		<polygon class="st0" points="8.8,16.3 14,15.8 5.3,10.7 0,11.2 		"/>
		<path class="st0" d="M5.3,10.7l8.7,5.1l-5.2,0.5L0,11.2L5.3,10.7z"/>
		<polygon class="st0" points="20.2,15.8 25.4,16.3 34.2,11.2 29,10.7 		"/>
		<polygon class="st0" points="17.1,3 17.1,3 13.4,0 1.7,6.7 5.4,9.7 16.6,3.3 		"/>
		<polygon class="st0" points="17.6,3.3 28.8,9.7 32.5,6.7 20.9,0 17.1,3 17.1,3 		"/>
	</g>
</g>
</svg>
