<?xml version="1.0" encoding="utf-8"?>
<!-- Generator: Adobe Illustrator 24.1.1, SVG Export Plug-In . SVG Version: 6.00 Build 0)  -->
<svg version="1.1" id="Layer_1" xmlns="http://www.w3.org/2000/svg" xmlns:xlink="http://www.w3.org/1999/xlink" x="0px" y="0px"
	 width="9.3px" height="24.5px" viewBox="0 0 9.3 24.5" style="enable-background:new 0 0 9.3 24.5;" xml:space="preserve">
<style type="text/css">
	.st0{fill:#FFFFFF;}
</style>
<g id="Layer_2_1_">
	<g id="Layer_1-2">
		<g id="info2">
			<path class="st0" d="M7.5,22.6c0-1.6,0-3.7,0-5.1V13l0.1-4.9L7,7.8L0,10v1.3l2.1,0.3C2.1,13,2.2,14,2.2,15.9v1.6
				c0,1.4,0,3.5,0,5.1L0.4,23v1.6h8.9V23L7.5,22.6z"/>
			<path class="st0" d="M4.7,5.3c1.5,0.1,2.7-1,2.8-2.5S6.5,0.1,5,0C4.9,0,4.8,0,4.7,0C3.2-0.1,2,1,1.9,2.5s1,2.7,2.5,2.8
				C4.5,5.3,4.6,5.3,4.7,5.3z"/>
		</g>
	</g>
</g>
</svg>
