<?xml version="1.0" encoding="utf-8"?>
<!-- Generator: Adobe Illustrator 25.0.1, SVG Export Plug-In . SVG Version: 6.00 Build 0)  -->
<svg version="1.1" id="Layer_1" xmlns="http://www.w3.org/2000/svg" xmlns:xlink="http://www.w3.org/1999/xlink" x="0px" y="0px"
	 width="38.7px" height="25.4px" viewBox="0 0 38.7 25.4" style="enable-background:new 0 0 38.7 25.4;" xml:space="preserve">
<style type="text/css">
	.st0{fill:#FFFFFF;}
</style>
<g>
	<g>
		<path class="st0" d="M11.6,11.7H7.5L3.3,3.6h0c0.1,1.3,0.1,2.2,0.1,2.9v5.2H0.6V0.2h4.1l4.2,8l0,0C8.8,7,8.8,6.1,8.8,5.4V0.2h2.8
			C11.6,0.2,11.6,11.7,11.6,11.7z"/>
		<path class="st0" d="M24.9,5.9c0,1.9-0.5,3.4-1.4,4.4s-2.3,1.5-4.2,1.5c-1.8,0-3.2-0.5-4.2-1.5s-1.4-2.5-1.4-4.4s0.5-3.4,1.4-4.4
			c1-1,2.3-1.5,4.2-1.5c1.8,0,3.2,0.5,4.2,1.5C24.4,2.5,24.9,4,24.9,5.9z M17,5.9c0,2.2,0.8,3.3,2.3,3.3c0.8,0,1.4-0.3,1.8-0.8
			c0.4-0.5,0.6-1.4,0.6-2.5s-0.2-2-0.6-2.5s-1-0.8-1.7-0.8C17.8,2.5,17,3.7,17,5.9z"/>
		<path class="st0" d="M37.9,11.7h-4.1l-4.2-8.1h-0.1c0.1,1.3,0.1,2.2,0.1,2.9v5.2h-2.8V0.2h4.1l4.2,8l0,0C35,7,35,6.1,35,5.4V0.2
			h2.8L37.9,11.7L37.9,11.7z"/>
	</g>
	<g>
		<path class="st0" d="M5,18.5h5v6.2c-1.3,0.5-2.8,0.7-4.4,0.7c-1.8,0-3.1-0.5-4.1-1.5S0,21.4,0,19.5s0.5-3.3,1.6-4.3
			c1.1-1,2.5-1.6,4.5-1.6c0.7,0,1.4,0.1,2.1,0.2s1.2,0.3,1.7,0.5l-1,2.4c-0.8-0.4-1.7-0.6-2.7-0.6c-0.9,0-1.6,0.3-2.1,0.9
			s-0.7,1.4-0.7,2.5s0.2,1.9,0.7,2.5c0.4,0.6,1.1,0.8,1.9,0.8c0.5,0,0.9,0,1.3-0.1v-1.8H5.2v-2.4H5z"/>
		<path class="st0" d="M17.3,25.3L14.9,17h-0.1c0.1,1.4,0.2,2.5,0.2,3.3v5h-2.7V13.8h4.1l2.4,8.2h0.1l2.4-8.2h4.1v11.5h-2.9v-5
			c0-0.3,0-0.6,0-0.9s0-1.1,0.1-2.4h-0.1l-2.2,8.3H17.3z"/>
		<path class="st0" d="M38.7,19.5c0,1.9-0.5,3.4-1.4,4.4c-0.9,1-2.3,1.5-4.2,1.5c-1.8,0-3.2-0.5-4.2-1.5s-1.4-2.5-1.4-4.4
			s0.5-3.4,1.4-4.4c1-1,2.3-1.5,4.2-1.5c1.8,0,3.2,0.5,4.2,1.5S38.7,17.6,38.7,19.5z M30.7,19.5c0,2.2,0.8,3.3,2.3,3.3
			c0.8,0,1.4-0.3,1.8-0.8s0.6-1.4,0.6-2.5s-0.2-2-0.6-2.5s-1-0.8-1.7-0.8C31.5,16.1,30.7,17.3,30.7,19.5z"/>
	</g>
</g>
</svg>
