<?xml version="1.0" encoding="utf-8"?>
<!-- Generator: Adobe Illustrator 24.1.1, SVG Export Plug-In . SVG Version: 6.00 Build 0)  -->
<svg version="1.1" id="Layer_1" xmlns="http://www.w3.org/2000/svg" xmlns:xlink="http://www.w3.org/1999/xlink" x="0px" y="0px"
	 width="225px" height="223.2px" viewBox="0 0 225 223.2" style="enable-background:new 0 0 225 223.2;" xml:space="preserve">
<style type="text/css">
	.st0{fill:#FFFFFF;}
</style>
<g>
	<path class="st0" d="M0,33.9C4.5,15.1,19.4,7,35.3,0.4c2.1-0.9,5.6,0.1,7.9,1.2c2.4,1.2,4.5,3.4,6.4,5.5c11,12.8,19.9,27,27.1,42.2
		c3.5,7.4,2.9,14-2.2,20.5c-9.7,12.5-12.5,17-0.1,34.1c13.9,19.2,30.7,35.5,50.3,48.8c11,7.5,16.7,7.5,27-0.9
		c8.8-7.2,17.6-8.3,27-2.4c12.7,7.9,25.2,16,37.5,24.5c3.6,2.5,5.9,6.6,8.9,10c0,1,0,2,0,3c-1.4,2-2.9,4-4.1,6.1
		c-3.3,5.4-6.2,11.1-9.9,16.1c-8.7,11.9-20.5,16.3-35.1,13.1c-15.7-3.4-29.5-11-43-19.3C70.7,164.9,23.5,114.3,0,43.9
		C0,40.6,0,37.2,0,33.9z"/>
</g>
</svg>
